/* XPM */
static char * Line_sel_xpm[] = {
"32 32 3 1",
" 	c None",
".	c #424242",
"+	c #FFFFFF",
"................................",
"................................",
"................................",
"................................",
"................................",
"........................+.......",
".......................+++......",
"......................+++.......",
".....................+++........",
"....................+++.........",
"...................+++..........",
"..................+++...........",
".................+++............",
"................+++.............",
"...............+++..............",
"..............+++...............",
".............+++................",
"............+++.................",
"...........+++..................",
"..........+++...................",
".........+++....................",
"........+++.....................",
".......+++......................",
"......+++.......................",
".....+++........................",
"....+++.........................",
".....+..........................",
"................................",
"................................",
"................................",
"................................",
"................................"};
